{
  "oidc_client_id": "a519d957-7016-41c3-8fc4-82e5e239eeca",
  "oidc_discovery_url": "https://login.microsoftonline.com/51abf00c-f1e7-4875-96a6-adb8eb5f8eb7/v2.0",
  "oidc_client_secret": "cb3e0bab-9a1b-4f40-a129-d8ae4b2301c5",
  "default_role": "admin"
}
